<?xml version="1.0" encoding="utf-8"?>
<!-- Generator: Adobe Illustrator 24.0.1, SVG Export Plug-In . SVG Version: 6.00 Build 0)  -->
<svg version="1.1" id="Layer_1" xmlns="http://www.w3.org/2000/svg" xmlns:xlink="http://www.w3.org/1999/xlink" x="0px" y="0px"
	 viewBox="0 0 384.7 152.5" style="enable-background:new 0 0 384.7 152.5;" xml:space="preserve">
<style type="text/css">
	.st0{fill:#00A4D4;}
	.st1{fill:#AC6EAA;}
	.st2{fill:#CD377E;}
	.st3{fill:#294280;}
	.st4{fill:#F7BE14;}
</style>
<g>
	<g>
		<g>
			<path class="st0" d="M55.6,96.8l15.2-15.2L48.2,59c-8.4-8.4-21.9-8.4-30.3,0s-8.4,21.9,0,30.3L54.6,126
				C47.3,117.6,47.6,104.8,55.6,96.8z"/>
			<path class="st1" d="M54.6,126c0.3,0.4,0.6,0.7,1,1h0c4.2,4.2,9.7,6.3,15.2,6.3c-5.5,0-10.9-2.1-15.1-6.3L54.6,126z"/>
			<path class="st2" d="M151,31.7L151,31.7c-8.4-8.4-21.9-8.4-30.3,0l-50,50l15.2,15.2c8,8,8.3,20.8,1,29.2L151,62
				C159.3,53.6,159.3,40,151,31.7z"/>
			<g>
				<path class="st3" d="M85.9,96.8L70.8,81.7L55.6,96.8c-8,8-8.3,20.8-1,29.2l1,1c4.2,4.2,9.6,6.3,15.1,6.3
					c5.5,0,10.9-2.1,15.1-6.3l1-1C94.3,117.6,94,104.8,85.9,96.8z"/>
			</g>
		</g>
		<circle class="st4" cx="72.1" cy="34.6" r="19.1"/>
	</g>
	<g>
		<path class="st3" d="M192.2,66.8c-4.1-2.3-7.3-5.6-9.6-9.7c-2.3-4.2-3.4-8.9-3.4-14.2c0-5.3,1.1-10,3.4-14.2
			c2.3-4.1,5.5-7.4,9.6-9.7c4.1-2.3,8.8-3.5,14.1-3.5c5.2,0,9.9,1.2,14.1,3.5c4.1,2.3,7.3,5.6,9.6,9.7c2.3,4.2,3.5,8.9,3.5,14.2
			c0,5.3-1.2,10-3.5,14.2c-2.3,4.2-5.5,7.4-9.6,9.7c-4.1,2.3-8.8,3.5-14.1,3.5C201.1,70.3,196.4,69.1,192.2,66.8z M216.8,61.1
			c3.1-1.8,5.5-4.4,7.3-7.6c1.7-3.2,2.6-6.7,2.6-10.7c0-3.9-0.9-7.5-2.6-10.7c-1.7-3.2-4.1-5.7-7.2-7.5c-3.1-1.8-6.6-2.7-10.5-2.7
			c-3.9,0-7.4,0.9-10.5,2.7c-3.1,1.8-5.5,4.3-7.2,7.5c-1.7,3.2-2.6,6.8-2.6,10.7c0,3.9,0.9,7.5,2.6,10.7c1.7,3.2,4.2,5.7,7.3,7.6
			c3.1,1.8,6.6,2.8,10.5,2.8C210.2,63.9,213.7,63,216.8,61.1z"/>
		<path class="st3" d="M272.4,34.4c2.9,1.7,5.2,3.9,6.8,6.8c1.6,2.9,2.5,6.1,2.5,9.7c0,3.6-0.8,6.8-2.3,9.7
			c-1.5,2.9-3.6,5.2-6.3,6.8c-2.7,1.6-5.6,2.5-8.9,2.5c-2.6,0-5.1-0.5-7.4-1.6c-2.3-1.1-4.2-2.6-5.8-4.6v18.5c0,1-0.3,1.9-1,2.5
			c-0.6,0.6-1.5,1-2.5,1c-1,0-1.8-0.3-2.5-1c-0.7-0.6-1-1.5-1-2.5V50.9c0-3.6,0.8-6.8,2.5-9.7c1.7-2.9,3.9-5.2,6.8-6.8
			c2.8-1.7,6-2.5,9.5-2.5C266.3,31.9,269.5,32.8,272.4,34.4z M269,62.1c1.8-1.1,3.3-2.6,4.4-4.6c1.1-1.9,1.6-4.1,1.6-6.5
			c0-2.4-0.5-4.6-1.6-6.6c-1.1-2-2.5-3.5-4.4-4.6c-1.8-1.1-3.9-1.7-6.2-1.7c-2.3,0-4.3,0.6-6.2,1.7c-1.8,1.1-3.3,2.7-4.3,4.6
			c-1,2-1.6,4.2-1.6,6.6c0,2.4,0.5,4.6,1.6,6.5c1,1.9,2.5,3.5,4.3,4.6c1.8,1.1,3.9,1.7,6.2,1.7C265.1,63.7,267.2,63.2,269,62.1z"/>
		<path class="st3" d="M324.8,52.5c-0.6,0.6-1.3,0.9-2.3,0.9h-26c0.5,3.2,1.9,5.8,4.3,7.7c2.4,2,5.3,2.9,8.8,2.9
			c1.4,0,2.8-0.3,4.3-0.8c1.5-0.5,2.7-1.1,3.7-1.8c0.6-0.5,1.4-0.8,2.3-0.8c0.9,0,1.6,0.2,2.1,0.7c0.8,0.7,1.2,1.5,1.2,2.3
			c0,0.8-0.4,1.5-1.1,2.1c-1.6,1.2-3.5,2.2-5.8,3c-2.3,0.8-4.5,1.2-6.6,1.2c-3.7,0-7.1-0.8-10.1-2.4c-3-1.6-5.3-3.9-6.9-6.7
			c-1.7-2.9-2.5-6.1-2.5-9.8c0-3.6,0.8-6.9,2.4-9.8c1.6-2.9,3.8-5.2,6.6-6.8c2.8-1.6,6-2.4,9.5-2.4c3.5,0,6.5,0.8,9.1,2.3
			c2.6,1.6,4.5,3.7,5.9,6.5c1.4,2.8,2.1,6,2.1,9.6C325.7,51.2,325.4,51.9,324.8,52.5z M300.5,40.5c-2.1,1.8-3.4,4.3-3.9,7.3h22.8
			c-0.4-3.1-1.6-5.5-3.4-7.3c-1.9-1.8-4.3-2.7-7.3-2.7C305.3,37.8,302.6,38.7,300.5,40.5z"/>
		<path class="st3" d="M361.7,33.9c2.5,1.4,4.5,3.4,5.9,6c1.4,2.6,2.1,5.8,2.1,9.5v16.8c0,1-0.3,1.8-1,2.5c-0.7,0.7-1.5,1-2.5,1
			c-1,0-1.8-0.3-2.5-1c-0.7-0.7-1-1.5-1-2.5V49.4c0-3.7-1-6.5-3-8.4c-2-1.9-4.6-2.8-7.9-2.8c-1.9,0-3.7,0.4-5.2,1.2
			c-1.6,0.8-2.8,1.8-3.7,3.1c-0.9,1.3-1.3,2.8-1.3,4.4v19.3c0,1-0.3,1.8-1,2.5c-0.6,0.7-1.5,1-2.5,1c-1,0-1.8-0.3-2.5-1
			c-0.7-0.7-1-1.5-1-2.5V35.7c0-1,0.3-1.9,1-2.5c0.7-0.6,1.5-1,2.5-1c1,0,1.9,0.3,2.5,1c0.6,0.6,1,1.5,1,2.5v0.8
			c1.5-1.5,3.2-2.6,5.2-3.4c2-0.8,4.2-1.2,6.4-1.2C356.3,31.9,359.2,32.5,361.7,33.9z"/>
		<path class="st3" d="M191.9,130c-4-2.4-7.2-5.7-9.5-9.9c-2.3-4.2-3.5-8.8-3.5-13.9c0-5,1.2-9.6,3.5-13.8c2.3-4.2,5.5-7.5,9.5-9.9
			c4-2.4,8.5-3.7,13.4-3.7c3.5,0,6.5,0.5,9,1.4c2.5,0.9,5.1,2.4,7.7,4.5c0.5,0.4,0.9,0.8,1.1,1.3c0.2,0.4,0.3,0.9,0.3,1.5
			c0,0.9-0.3,1.7-1,2.3c-0.7,0.6-1.4,0.9-2.3,0.9s-1.7-0.3-2.4-0.9c-1.9-1.6-3.7-2.7-5.5-3.5s-4.1-1.1-6.9-1.1
			c-3.6,0-6.8,0.9-9.8,2.8c-3,1.9-5.4,4.4-7.1,7.6c-1.8,3.2-2.6,6.7-2.6,10.5c0,3.8,0.9,7.3,2.6,10.5c1.8,3.2,4.1,5.7,7.1,7.6
			c3,1.9,6.3,2.8,9.8,2.8c4.4,0,8.6-1.5,12.6-4.5c0.8-0.5,1.5-0.8,2.3-0.8c0.9,0,1.6,0.3,2.2,0.9c0.6,0.6,0.9,1.4,0.9,2.4
			c0,1-0.4,1.8-1.1,2.5c-4.9,4-10.5,6-16.8,6C200.4,133.6,195.9,132.4,191.9,130z"/>
		<path class="st3" d="M254.9,120.6L254.9,120.6c-0.6-0.5-1.4-0.7-2.3-0.7H251v-19.4c0-0.9-0.3-1.7-0.8-2.3c-0.6-0.7-1.4-1-2.3-1
			c-1.1,0-2,0.5-2.7,1.4l-17,22.3c-0.4,0.6-0.7,1.2-0.7,2c0,0.9,0.3,1.6,0.9,2.3c0.6,0.6,1.4,1,2.4,1h13.8v4.6
			c0,0.9,0.3,1.7,0.9,2.3c0.6,0.7,1.4,1,2.3,1c0.9,0,1.7-0.3,2.3-1c0.6-0.6,0.9-1.4,0.9-2.3v-4.6h1.6c0.9,0,1.7-0.3,2.3-0.9
			c0.7-0.6,1-1.4,1-2.2C255.9,121.7,255.4,121,254.9,120.6z M244.6,109.3v10.7h-8.1L244.6,109.3z"/>
		<path class="st3" d="M267.7,131.8c-2.7-1-4.9-2.2-6.4-3.8c-0.6-0.6-0.9-1.3-0.9-2.1c0-1.1,0.5-2,1.4-2.7c0.9-0.6,1.7-1,2.4-1
			c0.9,0,1.8,0.4,2.6,1.2c0.9,1,2.2,1.8,3.9,2.5c1.7,0.7,3.6,1.1,5.5,1.1c2.6,0,4.6-0.4,6.1-1.3c1.4-0.9,2.2-2,2.2-3.5
			c0-1.4-0.7-2.6-2.1-3.5c-1.4-0.9-3.8-1.7-7.2-2.4c-8.8-1.7-13.1-5.3-13.1-10.8c0-2.2,0.7-4.1,2-5.7c1.3-1.6,3.1-2.7,5.2-3.5
			c2.1-0.8,4.4-1.2,6.8-1.2c3,0,5.6,0.5,8,1.4c2.3,1,4.2,2.3,5.6,4c0.6,0.7,0.9,1.5,0.9,2.2c0,0.8-0.4,1.5-1.2,2.1
			c-0.5,0.4-1.1,0.5-1.9,0.5c-1.2,0-2.3-0.4-3.2-1.3c-1.1-1-2.4-1.8-3.6-2.2c-1.3-0.4-2.8-0.7-4.7-0.7c-2.1,0-3.8,0.4-5.2,1.1
			c-1.3,0.7-2,1.7-2,3c0,0.9,0.2,1.7,0.7,2.3c0.5,0.6,1.3,1.2,2.6,1.7c1.3,0.5,3.1,1,5.5,1.5c5,1,8.5,2.4,10.6,4.2
			c2.1,1.8,3.1,4.1,3.1,6.9c0,2.1-0.6,4-1.7,5.7c-1.1,1.7-2.8,3.1-5,4c-2.2,1-4.9,1.5-8,1.5C273.4,133.2,270.4,132.7,267.7,131.8z"
			/>
	</g>
</g>
</svg>
