<svg id="Group_158" data-name="Group 158" xmlns="http://www.w3.org/2000/svg" width="126.72" height="123.056" viewBox="0 0 126.72 123.056">
  <g id="Group_124" data-name="Group 124" transform="translate(26.622 0)">
    <g id="Group_123" data-name="Group 123">
      <g id="Group_76" data-name="Group 76" transform="translate(61.336 9.371)">
        <g id="Group_75" data-name="Group 75">
          <g id="Group_74" data-name="Group 74">
            <circle id="Ellipse_24" data-name="Ellipse 24" cx="4.366" cy="4.366" r="4.366" fill="#a8a8a8"/>
          </g>
        </g>
      </g>
      <g id="Group_78" data-name="Group 78" transform="translate(3.549 7.517)">
        <g id="Group_77" data-name="Group 77">
          <path id="Path_304" data-name="Path 304" d="M297.8,332.587l-13.63-12.721-13.63,12.721v-19H247.569l17.3-13.2-17.3-13.2h22.966V269.034l13.63,12.722,13.512-12.6.113,18.33,15.323-.3.033,1.7-17.049.336-.1-16.171-11.832,11.037-11.926-11.131v15.929H252.61l15.07,11.5-15.07,11.5h19.629v16.782l11.926-11.132,11.927,11.132V311.885h19.274v1.7H297.8Z" transform="translate(-247.569 -269.034)" fill="#a8a8a8"/>
        </g>
      </g>
      <g id="Group_81" data-name="Group 81" transform="translate(61.336 59.632)">
        <g id="Group_80" data-name="Group 80">
          <g id="Group_79" data-name="Group 79">
            <circle id="Ellipse_25" data-name="Ellipse 25" cx="4.366" cy="4.366" r="4.366" fill="#a8a8a8"/>
          </g>
        </g>
      </g>
      <g id="Group_83" data-name="Group 83" transform="translate(48.558 46.854)">
        <g id="Group_82" data-name="Group 82">
          <circle id="Ellipse_26" data-name="Ellipse 26" cx="4.366" cy="4.366" r="4.366" fill="#a8a8a8"/>
        </g>
      </g>
      <g id="Group_85" data-name="Group 85" transform="translate(48.558 22.149)">
        <g id="Group_84" data-name="Group 84">
          <circle id="Ellipse_27" data-name="Ellipse 27" cx="4.366" cy="4.366" r="4.366" fill="#a8a8a8"/>
        </g>
      </g>
      <g id="Group_87" data-name="Group 87" transform="translate(10.223 10.223)">
        <g id="Group_86" data-name="Group 86">
          <circle id="Ellipse_28" data-name="Ellipse 28" cx="4.366" cy="4.366" r="4.366" fill="#a8a8a8"/>
        </g>
      </g>
      <g id="Group_89" data-name="Group 89" transform="translate(10.223 59.632)">
        <g id="Group_88" data-name="Group 88">
          <circle id="Ellipse_29" data-name="Ellipse 29" cx="4.366" cy="4.366" r="4.366" fill="#a8a8a8"/>
        </g>
      </g>
      <g id="Group_91" data-name="Group 91" transform="translate(1.704 22.149)">
        <g id="Group_90" data-name="Group 90">
          <circle id="Ellipse_30" data-name="Ellipse 30" cx="4.366" cy="4.366" r="4.366" fill="#a8a8a8"/>
        </g>
      </g>
      <g id="Group_93" data-name="Group 93" transform="translate(1.704 46.854)">
        <g id="Group_92" data-name="Group 92">
          <circle id="Ellipse_31" data-name="Ellipse 31" cx="4.366" cy="4.366" r="4.366" fill="#a8a8a8"/>
        </g>
      </g>
      <g id="Group_95" data-name="Group 95" transform="translate(17.89 34.502)">
        <g id="Group_94" data-name="Group 94">
          <circle id="Ellipse_32" data-name="Ellipse 32" cx="4.366" cy="4.366" r="4.366" fill="#a8a8a8"/>
        </g>
      </g>
      <g id="Group_97" data-name="Group 97" transform="translate(0 34.502)">
        <g id="Group_96" data-name="Group 96">
          <circle id="Ellipse_33" data-name="Ellipse 33" cx="4.366" cy="4.366" r="4.366" fill="#a8a8a8"/>
        </g>
      </g>
      <g id="Group_102" data-name="Group 102" transform="translate(64.744 22.149)">
        <g id="Group_99" data-name="Group 99" transform="translate(0 24.705)">
          <g id="Group_98" data-name="Group 98">
            <circle id="Ellipse_34" data-name="Ellipse 34" cx="4.366" cy="4.366" r="4.366" fill="#a8a8a8"/>
          </g>
        </g>
        <g id="Group_101" data-name="Group 101">
          <g id="Group_100" data-name="Group 100">
            <circle id="Ellipse_35" data-name="Ellipse 35" cx="4.366" cy="4.366" r="4.366" fill="#a8a8a8"/>
          </g>
        </g>
      </g>
      <g id="Group_104" data-name="Group 104" transform="translate(48.558 5.111)">
        <g id="Group_103" data-name="Group 103">
          <circle id="Ellipse_36" data-name="Ellipse 36" cx="4.366" cy="4.366" r="4.366" fill="#a8a8a8"/>
        </g>
      </g>
      <g id="Group_106" data-name="Group 106" transform="translate(48.558 64.744)">
        <g id="Group_105" data-name="Group 105">
          <circle id="Ellipse_37" data-name="Ellipse 37" cx="4.366" cy="4.366" r="4.366" fill="#a8a8a8"/>
        </g>
      </g>
      <g id="Group_108" data-name="Group 108" transform="translate(23.001 5.111)">
        <g id="Group_107" data-name="Group 107">
          <circle id="Ellipse_38" data-name="Ellipse 38" cx="4.366" cy="4.366" r="4.366" fill="#a8a8a8"/>
        </g>
      </g>
      <g id="Group_110" data-name="Group 110" transform="translate(23.001 46.854)">
        <g id="Group_109" data-name="Group 109">
          <circle id="Ellipse_39" data-name="Ellipse 39" cx="4.366" cy="4.366" r="4.366" fill="#a8a8a8"/>
        </g>
      </g>
      <g id="Group_112" data-name="Group 112" transform="translate(23.001 22.149)">
        <g id="Group_111" data-name="Group 111">
          <circle id="Ellipse_40" data-name="Ellipse 40" cx="4.366" cy="4.366" r="4.366" fill="#a8a8a8"/>
        </g>
      </g>
      <g id="Group_114" data-name="Group 114" transform="translate(23.001 64.744)">
        <g id="Group_113" data-name="Group 113">
          <circle id="Ellipse_41" data-name="Ellipse 41" cx="4.366" cy="4.366" r="4.366" fill="#a8a8a8"/>
        </g>
      </g>
      <g id="Group_116" data-name="Group 116" transform="translate(35.779)">
        <g id="Group_115" data-name="Group 115">
          <circle id="Ellipse_42" data-name="Ellipse 42" cx="4.366" cy="4.366" r="4.366" fill="#a8a8a8"/>
        </g>
      </g>
      <g id="Group_118" data-name="Group 118" transform="translate(35.779 17.038)">
        <g id="Group_117" data-name="Group 117">
          <circle id="Ellipse_43" data-name="Ellipse 43" cx="4.366" cy="4.366" r="4.366" fill="#a8a8a8"/>
        </g>
      </g>
      <g id="Group_120" data-name="Group 120" transform="translate(35.779 69.855)">
        <g id="Group_119" data-name="Group 119">
          <circle id="Ellipse_44" data-name="Ellipse 44" cx="4.366" cy="4.366" r="4.366" fill="#a8a8a8"/>
        </g>
      </g>
      <g id="Group_122" data-name="Group 122" transform="translate(35.779 52.817)">
        <g id="Group_121" data-name="Group 121">
          <circle id="Ellipse_45" data-name="Ellipse 45" cx="4.366" cy="4.366" r="4.366" fill="#a8a8a8"/>
        </g>
      </g>
    </g>
  </g>
  <path id="Path_305" data-name="Path 305" d="M217.685,394.089a1.6,1.6,0,0,1-.306.966,1.87,1.87,0,0,1-.724.611,13.955,13.955,0,0,0-1.914-1.029,6.673,6.673,0,0,0-2.718-.483,6.751,6.751,0,0,0-2.59.483,5.592,5.592,0,0,0-2.027,1.416,6.612,6.612,0,0,0-1.335,2.316,9.663,9.663,0,0,0-.482,3.186,7.622,7.622,0,0,0,1.8,5.5,6.315,6.315,0,0,0,4.761,1.866,7.528,7.528,0,0,0,2.734-.451,9.623,9.623,0,0,0,2-1.029,2.487,2.487,0,0,1,.659.642,1.6,1.6,0,0,1,.306.966,1.546,1.546,0,0,1-.241.836,2.261,2.261,0,0,1-.788.709,7.636,7.636,0,0,1-1.931.8,12.681,12.681,0,0,1-6.917-.274,8.461,8.461,0,0,1-3.088-1.9,8.872,8.872,0,0,1-2.075-3.184,12.189,12.189,0,0,1-.756-4.488,11.887,11.887,0,0,1,.772-4.44A9.306,9.306,0,0,1,204.9,393.9a8.66,8.66,0,0,1,3.04-1.947,10.348,10.348,0,0,1,3.7-.659,11.808,11.808,0,0,1,2.494.241,8.392,8.392,0,0,1,1.9.628,3.693,3.693,0,0,1,1.223.9A1.6,1.6,0,0,1,217.685,394.089Z" transform="translate(-202.05 -302.738)" fill="#fff"/>
  <path id="Path_306" data-name="Path 306" d="M238.286,411.063a1.823,1.823,0,0,1-.515-1.351V393.851a1.773,1.773,0,0,1,.515-1.335,1.863,1.863,0,0,1,1.352-.5h10.648a1.641,1.641,0,0,1,.274.547,2.56,2.56,0,0,1,.112.772,1.61,1.61,0,0,1-.337,1.094,1.155,1.155,0,0,1-.917.386h-8.236v5.339h8.14a1.645,1.645,0,0,1,.273.548,2.526,2.526,0,0,1,.113.772,1.535,1.535,0,0,1-.337,1.093,1.2,1.2,0,0,1-.917.355h-7.271v5.855h9.266a2.679,2.679,0,0,1,.257.546,2.254,2.254,0,0,1,.129.773,1.6,1.6,0,0,1-.337,1.109,1.182,1.182,0,0,1-.917.371h-9.94A1.826,1.826,0,0,1,238.286,411.063Z" transform="translate(-214.094 -302.983)" fill="#fff"/>
  <path id="Path_307" data-name="Path 307" d="M284.828,411.464a3.888,3.888,0,0,1-1.289.192,3.38,3.38,0,0,1-1.56-.337,3.156,3.156,0,0,1-1.206-1.271l-5.308-9.233c-.237-.407-.477-.837-.724-1.287s-.483-.9-.708-1.352-.44-.885-.644-1.3-.38-.789-.531-1.11l-.16.032q.16,1.673.225,3.587t.064,3.619v8.4c-.151.042-.37.091-.66.145a4.909,4.909,0,0,1-.885.08,2.214,2.214,0,0,1-1.4-.354,1.453,1.453,0,0,1-.435-1.19V392.45a2.194,2.194,0,0,1,.917-.563,3.792,3.792,0,0,1,1.271-.209,3.644,3.644,0,0,1,1.576.321,3,3,0,0,1,1.223,1.255l5.34,9.265q.354.612.707,1.287t.693,1.352q.337.674.642,1.3t.531,1.11l.129-.033q-.257-2.443-.289-4.841t-.033-4.681V391.9c.171-.042.4-.091.675-.144a4.772,4.772,0,0,1,.9-.081,2.226,2.226,0,0,1,1.4.354,1.455,1.455,0,0,1,.433,1.19V410.98A2.972,2.972,0,0,1,284.828,411.464Z" transform="translate(-224.829 -302.869)" fill="#fff"/>
  <path id="Path_308" data-name="Path 308" d="M313.86,403.919l-5.437,7.689q-.161.031-.338.047t-.37.017a2.292,2.292,0,0,1-1.479-.418,1.375,1.375,0,0,1-.516-1.126,2.18,2.18,0,0,1,.242-1.013,5.91,5.91,0,0,1,.691-1.014l5.019-6.562-5.92-8.171a2.62,2.62,0,0,1,.708-1.142,1.861,1.861,0,0,1,1.352-.5,1.771,1.771,0,0,1,1.093.338,4.38,4.38,0,0,1,.933,1.046l4.118,6.016,5.18-7.271c.107-.021.245-.042.418-.065a4.178,4.178,0,0,1,.515-.032,1.987,1.987,0,0,1,1.367.418,1.363,1.363,0,0,1,.467,1.061,1.857,1.857,0,0,1-.257.933,9.058,9.058,0,0,1-.676,1q-1.19,1.577-2.413,3.137l-2.509,3.2,6.177,8.557a2.059,2.059,0,0,1-.675,1.175,2.026,2.026,0,0,1-1.352.434,1.767,1.767,0,0,1-1.045-.306,3.825,3.825,0,0,1-.917-1.045Z" transform="translate(-237.004 -302.885)" fill="#fff"/>
  <path id="Path_309" data-name="Path 309" d="M342.879,411.063a1.823,1.823,0,0,1-.514-1.351V393.851a1.772,1.772,0,0,1,.514-1.335,1.863,1.863,0,0,1,1.351-.5h10.649a1.642,1.642,0,0,1,.273.547,2.52,2.52,0,0,1,.113.772,1.613,1.613,0,0,1-.338,1.094,1.155,1.155,0,0,1-.917.386h-8.236v5.339h8.139a1.634,1.634,0,0,1,.274.548,2.547,2.547,0,0,1,.112.772,1.532,1.532,0,0,1-.337,1.093,1.2,1.2,0,0,1-.917.355h-7.271v5.855h9.266a2.684,2.684,0,0,1,.257.546,2.27,2.27,0,0,1,.129.773,1.592,1.592,0,0,1-.338,1.109,1.177,1.177,0,0,1-.917.371H344.23A1.827,1.827,0,0,1,342.879,411.063Z" transform="translate(-249.36 -302.983)" fill="#fff"/>
  <path id="Path_310" data-name="Path 310" d="M374.719,410.948a1.823,1.823,0,0,1-.514-1.351V391.9c.171-.042.4-.091.691-.144a5.034,5.034,0,0,1,.917-.081,2.3,2.3,0,0,1,1.4.354,1.484,1.484,0,0,1,.467,1.254v15.282H386.4a2.438,2.438,0,0,1,.289.579,2.356,2.356,0,0,1,.129.8,1.612,1.612,0,0,1-.354,1.126,1.206,1.206,0,0,1-.933.386H376.07A1.827,1.827,0,0,1,374.719,410.948Z" transform="translate(-260.095 -302.869)" fill="#fff"/>
  <g id="Group_125" data-name="Group 125" transform="translate(2.285 113.215)">
    <path id="Path_311" data-name="Path 311" d="M208.82,430.61v5.822a1.211,1.211,0,0,1-.231.061,1.714,1.714,0,0,1-.321.029.743.743,0,0,1-.5-.13.553.553,0,0,1-.146-.433V430.61h-1.993a.742.742,0,0,1-.1-.2.921.921,0,0,1-.04-.282.541.541,0,0,1,.119-.377.412.412,0,0,1,.321-.129h4.9a.778.778,0,0,1,.085.192.9.9,0,0,1,.039.27q0,.529-.439.53Z" transform="translate(-205.498 -428.876)" fill="#cbcbcb"/>
    <path id="Path_312" data-name="Path 312" d="M218.125,435.131a1.53,1.53,0,0,0,.613.951,2.025,2.025,0,0,0,1.165.31,2.464,2.464,0,0,0,.868-.146,2.726,2.726,0,0,0,.63-.315.559.559,0,0,1,.315.507.517.517,0,0,1-.146.355,1.209,1.209,0,0,1-.4.281,2.545,2.545,0,0,1-.6.186,4.043,4.043,0,0,1-1.926-.111,2.48,2.48,0,0,1-.917-.542,2.4,2.4,0,0,1-.591-.889,3.328,3.328,0,0,1-.208-1.227,3.21,3.21,0,0,1,.2-1.188,2.446,2.446,0,0,1,.551-.856,2.328,2.328,0,0,1,.822-.523,2.8,2.8,0,0,1,1.013-.181,2.678,2.678,0,0,1,.985.174,2.306,2.306,0,0,1,.766.484,2.148,2.148,0,0,1,.5.738,2.456,2.456,0,0,1,.174.935.552.552,0,0,1-.135.411.744.744,0,0,1-.394.174Zm1.4-2.476a1.384,1.384,0,0,0-1.03.416,1.7,1.7,0,0,0-.434,1.194l2.769-.394a1.423,1.423,0,0,0-.371-.862A1.209,1.209,0,0,0,219.521,432.655Z" transform="translate(-209.353 -429.592)" fill="#cbcbcb"/>
    <path id="Path_313" data-name="Path 313" d="M230.793,432.7a1.831,1.831,0,0,0-.665.119,1.41,1.41,0,0,0-.524.355,1.751,1.751,0,0,0-.349.58,2.235,2.235,0,0,0-.13.794,1.85,1.85,0,0,0,.462,1.357,1.618,1.618,0,0,0,1.205.467,2.117,2.117,0,0,0,.732-.113,2.278,2.278,0,0,0,.529-.271.853.853,0,0,1,.237.215.506.506,0,0,1,.09.3q0,.348-.456.586a2.619,2.619,0,0,1-1.2.235,3.6,3.6,0,0,1-1.132-.168,2.342,2.342,0,0,1-.884-.518,2.371,2.371,0,0,1-.58-.872,3.284,3.284,0,0,1-.208-1.222,3.183,3.183,0,0,1,.219-1.228,2.4,2.4,0,0,1,1.481-1.4,3.266,3.266,0,0,1,1.07-.174,3.006,3.006,0,0,1,.67.068,1.976,1.976,0,0,1,.512.186,1.078,1.078,0,0,1,.332.27.518.518,0,0,1,.119.322.511.511,0,0,1-.085.288.579.579,0,0,1-.208.2,3.314,3.314,0,0,0-.523-.259A1.964,1.964,0,0,0,230.793,432.7Z" transform="translate(-213.059 -429.592)" fill="#cbcbcb"/>
    <path id="Path_314" data-name="Path 314" d="M241.815,431.972a1.285,1.285,0,0,0-.872-.287,1.758,1.758,0,0,0-.659.119,2.254,2.254,0,0,0-.524.286v4.055a1.2,1.2,0,0,1-.219.061,1.547,1.547,0,0,1-.31.029.778.778,0,0,1-.485-.124.5.5,0,0,1-.157-.416v-6.835c.052-.015.127-.034.225-.056a1.441,1.441,0,0,1,.316-.034.757.757,0,0,1,.479.124.509.509,0,0,1,.152.417v1.778a3.714,3.714,0,0,1,.6-.242,2.622,2.622,0,0,1,.771-.107,2.341,2.341,0,0,1,1.582.518,1.964,1.964,0,0,1,.6,1.576v3.312a1.187,1.187,0,0,1-.225.061,1.581,1.581,0,0,1-.3.029.772.772,0,0,1-.489-.124.508.508,0,0,1-.152-.416v-2.815A1.138,1.138,0,0,0,241.815,431.972Z" transform="translate(-216.656 -428.589)" fill="#cbcbcb"/>
    <path id="Path_315" data-name="Path 315" d="M253.356,432.947a1.266,1.266,0,0,0-.839-.259,2.262,2.262,0,0,0-.7.1,3.141,3.141,0,0,0-.535.225v4.133a1.19,1.19,0,0,1-.219.061,1.544,1.544,0,0,1-.31.028.776.776,0,0,1-.484-.124.5.5,0,0,1-.158-.416v-3.716a.765.765,0,0,1,.1-.418,1.156,1.156,0,0,1,.338-.315,3.718,3.718,0,0,1,.822-.349,3.848,3.848,0,0,1,1.148-.158,2.693,2.693,0,0,1,1.711.49,1.773,1.773,0,0,1,.619,1.481v3.435a1.187,1.187,0,0,1-.225.061,1.639,1.639,0,0,1-.315.028.775.775,0,0,1-.484-.124.5.5,0,0,1-.158-.416v-2.939A1,1,0,0,0,253.356,432.947Z" transform="translate(-220.539 -429.592)" fill="#cbcbcb"/>
    <path id="Path_316" data-name="Path 316" d="M266.553,434.535a3.339,3.339,0,0,1-.191,1.159,2.524,2.524,0,0,1-.535.878,2.334,2.334,0,0,1-.839.558,3.2,3.2,0,0,1-2.207,0,2.333,2.333,0,0,1-.839-.558,2.522,2.522,0,0,1-.535-.878,3.617,3.617,0,0,1,0-2.319,2.481,2.481,0,0,1,.541-.879,2.384,2.384,0,0,1,.844-.557,3.128,3.128,0,0,1,2.184,0,2.354,2.354,0,0,1,.844.563,2.542,2.542,0,0,1,.541.878A3.286,3.286,0,0,1,266.553,434.535Zm-2.668-1.847a1.307,1.307,0,0,0-1.07.484,2.573,2.573,0,0,0-.011,2.72,1.46,1.46,0,0,0,2.161,0,2.579,2.579,0,0,0-.005-2.714A1.3,1.3,0,0,0,263.886,432.688Z" transform="translate(-224.285 -429.592)" fill="#cbcbcb"/>
    <path id="Path_317" data-name="Path 317" d="M273.987,436.235a.777.777,0,0,1-.484-.124.5.5,0,0,1-.158-.416v-6.835c.053-.015.128-.034.225-.056a1.44,1.44,0,0,1,.315-.034.781.781,0,0,1,.484.124.5.5,0,0,1,.158.417v6.835a1.613,1.613,0,0,1-.231.061A1.554,1.554,0,0,1,273.987,436.235Z" transform="translate(-228.374 -428.589)" fill="#cbcbcb"/>
    <path id="Path_318" data-name="Path 318" d="M284.526,434.535a3.324,3.324,0,0,1-.191,1.159,2.5,2.5,0,0,1-.535.878,2.331,2.331,0,0,1-.838.558,3.2,3.2,0,0,1-2.207,0,2.328,2.328,0,0,1-.839-.558,2.522,2.522,0,0,1-.535-.878,3.605,3.605,0,0,1,0-2.319,2.482,2.482,0,0,1,.54-.879,2.393,2.393,0,0,1,.845-.557,3.127,3.127,0,0,1,2.184,0,2.359,2.359,0,0,1,.844.563,2.529,2.529,0,0,1,.54.878A3.271,3.271,0,0,1,284.526,434.535Zm-2.669-1.847a1.309,1.309,0,0,0-1.07.484,2.576,2.576,0,0,0-.011,2.72,1.46,1.46,0,0,0,2.162,0,2.583,2.583,0,0,0-.005-2.714A1.3,1.3,0,0,0,281.858,432.688Z" transform="translate(-230.344 -429.592)" fill="#cbcbcb"/>
    <path id="Path_319" data-name="Path 319" d="M294.507,436.673a2,2,0,0,1-.524.225,2.681,2.681,0,0,1-.738.089,3.112,3.112,0,0,1-.94-.139,2.076,2.076,0,0,1-.782-.451,2.136,2.136,0,0,1-.535-.8,3.307,3.307,0,0,1-.2-1.217,3.05,3.05,0,0,1,.2-1.142,2.259,2.259,0,0,1,.551-.822,2.323,2.323,0,0,1,.845-.5,3.3,3.3,0,0,1,1.086-.169,3.526,3.526,0,0,1,1.019.141,2.963,2.963,0,0,1,.76.332,1.049,1.049,0,0,1,.3.282.67.67,0,0,1,.107.383v4.436a2.2,2.2,0,0,1-.2.97,1.754,1.754,0,0,1-.54.658,2.318,2.318,0,0,1-.816.371,4.136,4.136,0,0,1-1.014.119,3.8,3.8,0,0,1-.991-.113,2.642,2.642,0,0,1-.608-.224.642.642,0,0,1-.349-.564.609.609,0,0,1,.078-.321.633.633,0,0,1,.2-.208,2.763,2.763,0,0,0,.686.326,2.813,2.813,0,0,0,.913.147,1.821,1.821,0,0,0,1.1-.287,1.079,1.079,0,0,0,.388-.93Zm-1.092-.608a1.616,1.616,0,0,0,.642-.112,1.7,1.7,0,0,0,.44-.27v-2.726a2.224,2.224,0,0,0-.418-.185,1.79,1.79,0,0,0-.585-.085,1.491,1.491,0,0,0-1.1.416,1.713,1.713,0,0,0-.417,1.261,2.432,2.432,0,0,0,.113.788,1.435,1.435,0,0,0,.3.53,1.1,1.1,0,0,0,.455.292A1.747,1.747,0,0,0,293.414,436.066Z" transform="translate(-234.256 -429.592)" fill="#cbcbcb"/>
    <path id="Path_320" data-name="Path 320" d="M302.377,429.184a.654.654,0,0,1,.2-.489.713.713,0,0,1,.518-.2.687.687,0,1,1,0,1.373.711.711,0,0,1-.518-.2A.656.656,0,0,1,302.377,429.184Zm1.306,6.87a1.182,1.182,0,0,1-.22.061,1.607,1.607,0,0,1-.32.029.777.777,0,0,1-.485-.124.5.5,0,0,1-.157-.416V430.84c.06-.016.137-.034.23-.056a1.421,1.421,0,0,1,.321-.034.754.754,0,0,1,.478.124.525.525,0,0,1,.152.428Z" transform="translate(-238.163 -428.498)" fill="#cbcbcb"/>
    <path id="Path_321" data-name="Path 321" d="M309.583,435.131a1.535,1.535,0,0,0,.615.951,2.022,2.022,0,0,0,1.165.31,2.458,2.458,0,0,0,.867-.146,2.718,2.718,0,0,0,.631-.315.56.56,0,0,1,.315.507.521.521,0,0,1-.147.355,1.206,1.206,0,0,1-.4.281,2.519,2.519,0,0,1-.6.186,4.043,4.043,0,0,1-1.925-.111,2.475,2.475,0,0,1-.917-.542,2.409,2.409,0,0,1-.591-.889,3.327,3.327,0,0,1-.208-1.227,3.212,3.212,0,0,1,.2-1.188,2.447,2.447,0,0,1,.552-.856,2.322,2.322,0,0,1,.822-.523,2.8,2.8,0,0,1,1.013-.181,2.678,2.678,0,0,1,.985.174,2.3,2.3,0,0,1,.766.484,2.123,2.123,0,0,1,.5.738,2.456,2.456,0,0,1,.174.935.55.55,0,0,1-.135.411.738.738,0,0,1-.394.174Zm1.4-2.476a1.387,1.387,0,0,0-1.031.416,1.7,1.7,0,0,0-.433,1.194l2.77-.394a1.423,1.423,0,0,0-.371-.862A1.208,1.208,0,0,0,310.98,432.655Z" transform="translate(-240.19 -429.592)" fill="#cbcbcb"/>
    <path id="Path_322" data-name="Path 322" d="M323.6,435.716a1.4,1.4,0,0,1-.562,1.182,2.662,2.662,0,0,1-1.633.427,4.476,4.476,0,0,1-.811-.068,2.518,2.518,0,0,1-.636-.191,1.206,1.206,0,0,1-.412-.293.553.553,0,0,1-.146-.371.617.617,0,0,1,.085-.315.666.666,0,0,1,.231-.237,4.646,4.646,0,0,0,.72.372,2.447,2.447,0,0,0,.946.169,1.432,1.432,0,0,0,.777-.175.562.562,0,0,0,.271-.5.579.579,0,0,0-.186-.45,1.253,1.253,0,0,0-.546-.258l-.766-.2a2.528,2.528,0,0,1-1.126-.552,1.269,1.269,0,0,1-.361-.957,1.437,1.437,0,0,1,.135-.614,1.379,1.379,0,0,1,.4-.5,1.972,1.972,0,0,1,.659-.327,3.141,3.141,0,0,1,.9-.118,3.994,3.994,0,0,1,.738.062,2.627,2.627,0,0,1,.574.168,1.033,1.033,0,0,1,.377.265.51.51,0,0,1,.135.337.582.582,0,0,1-.079.31.621.621,0,0,1-.2.208,3.584,3.584,0,0,0-.6-.27,2.492,2.492,0,0,0-.862-.146,1.435,1.435,0,0,0-.743.164.506.506,0,0,0-.27.455.5.5,0,0,0,.152.372,1.16,1.16,0,0,0,.523.235l.654.17a2.9,2.9,0,0,1,1.261.608A1.357,1.357,0,0,1,323.6,435.716Z" transform="translate(-243.902 -429.592)" fill="#cbcbcb"/>
    <path id="Path_323" data-name="Path 323" d="M336.515,434.026v2.331a1.568,1.568,0,0,1-.236.061,1.7,1.7,0,0,1-.327.029.769.769,0,0,1-.5-.13.54.54,0,0,1-.152-.434v-5.81a.4.4,0,0,1,.107-.3.673.673,0,0,1,.3-.163,3.464,3.464,0,0,1,.833-.169q.483-.045.912-.045a3.213,3.213,0,0,1,2.167.619,2.121,2.121,0,0,1,.7,1.678,2.174,2.174,0,0,1-.7,1.695,3.04,3.04,0,0,1-2.1.636Zm.923-.98a1.977,1.977,0,0,0,1.222-.337,1.193,1.193,0,0,0,.444-1.013,1.157,1.157,0,0,0-.422-.991,2,2,0,0,0-1.211-.316c-.173,0-.343.008-.512.023s-.32.034-.455.056v2.578Z" transform="translate(-249.263 -428.801)" fill="#cbcbcb"/>
    <path id="Path_324" data-name="Path 324" d="M350.595,431.811a.659.659,0,0,1,.406.118.44.44,0,0,1,.158.376,2.1,2.1,0,0,1-.085.457q-.083.32-.23.748t-.327.923q-.181.5-.384.985t-.4.935q-.2.444-.365.76a1.111,1.111,0,0,1-.27.107,1.5,1.5,0,0,1-.406.05.751.751,0,0,1-.72-.3c-.105-.188-.245-.482-.418-.884s-.349-.84-.528-1.318-.355-.953-.524-1.43-.3-.888-.4-1.233a.806.806,0,0,1,.27-.208.784.784,0,0,1,.361-.084.652.652,0,0,1,.411.118.809.809,0,0,1,.242.41l.619,1.937c.045.142.1.3.158.473s.119.348.18.524.12.345.18.506.109.3.147.411h.056q.383-1.058.732-2.133t.608-2.123A1.037,1.037,0,0,1,350.595,431.811Z" transform="translate(-252.905 -429.615)" fill="#cbcbcb"/>
    <path id="Path_325" data-name="Path 325" d="M358.926,435.5a1.13,1.13,0,0,0,.663.169,1.577,1.577,0,0,0,.4-.057,1.836,1.836,0,0,0,.373-.135,1.265,1.265,0,0,1,.141.2.563.563,0,0,1-.237.755,1.7,1.7,0,0,1-.906.191,2.19,2.19,0,0,1-1.346-.377,1.457,1.457,0,0,1-.5-1.244v-5.258c.052-.015.127-.034.225-.056a1.4,1.4,0,0,1,.316-.035.759.759,0,0,1,.479.124.51.51,0,0,1,.152.417v1.115h1.746a.817.817,0,0,1,.084.192.86.86,0,0,1,.039.259q0,.483-.416.484h-1.453v2.68A.655.655,0,0,0,358.926,435.5Z" transform="translate(-256.755 -428.887)" fill="#cbcbcb"/>
    <path id="Path_326" data-name="Path 326" d="M365.111,438.646a.769.769,0,0,1,.2-.54.812.812,0,0,1,1.1,0,.861.861,0,0,1,0,1.081.812.812,0,0,1-1.1,0A.767.767,0,0,1,365.111,438.646Z" transform="translate(-259.315 -431.665)" fill="#cbcbcb"/>
    <path id="Path_327" data-name="Path 327" d="M371.631,436.235a.776.776,0,0,1-.485-.124.5.5,0,0,1-.157-.416v-6.835c.052-.015.127-.034.225-.056a1.431,1.431,0,0,1,.315-.034.781.781,0,0,1,.484.124.5.5,0,0,1,.158.417v6.835a1.613,1.613,0,0,1-.231.061A1.555,1.555,0,0,1,371.631,436.235Z" transform="translate(-261.297 -428.589)" fill="#cbcbcb"/>
    <path id="Path_328" data-name="Path 328" d="M378.682,435.5a1.13,1.13,0,0,0,.664.169,1.582,1.582,0,0,0,.406-.057,1.835,1.835,0,0,0,.372-.135,1.261,1.261,0,0,1,.141.2.565.565,0,0,1-.237.755,1.7,1.7,0,0,1-.906.191,2.188,2.188,0,0,1-1.346-.377,1.457,1.457,0,0,1-.5-1.244v-5.258c.052-.015.127-.034.225-.056a1.391,1.391,0,0,1,.315-.035.76.76,0,0,1,.479.124.51.51,0,0,1,.151.417v1.115h1.746a.8.8,0,0,1,.084.192.861.861,0,0,1,.04.259c0,.322-.139.484-.416.484h-1.454v2.68A.657.657,0,0,0,378.682,435.5Z" transform="translate(-263.416 -428.887)" fill="#cbcbcb"/>
    <path id="Path_329" data-name="Path 329" d="M387.955,430.74a2.692,2.692,0,0,1,.636.073,2.54,2.54,0,0,1,.523.186v-2.14c.052-.015.128-.034.225-.056a1.439,1.439,0,0,1,.315-.034.782.782,0,0,1,.485.124.5.5,0,0,1,.158.417v5.9a.686.686,0,0,1-.1.388,1.023,1.023,0,0,1-.315.288,2.794,2.794,0,0,1-.7.3,3.452,3.452,0,0,1-1.018.135,3.962,3.962,0,0,1-1.171-.162,2.214,2.214,0,0,1-1.475-1.374,3.421,3.421,0,0,1-.2-1.233,3.481,3.481,0,0,1,.208-1.267,2.383,2.383,0,0,1,.569-.878,2.249,2.249,0,0,1,.839-.506A3.174,3.174,0,0,1,387.955,430.74Zm1.171,1.25a2.116,2.116,0,0,0-.451-.214,1.726,1.726,0,0,0-.574-.09,1.864,1.864,0,0,0-.625.1,1.236,1.236,0,0,0-.5.331,1.646,1.646,0,0,0-.339.586,2.628,2.628,0,0,0-.123.86,1.837,1.837,0,0,0,.445,1.375,1.645,1.645,0,0,0,1.188.427,1.921,1.921,0,0,0,.569-.073,2.23,2.23,0,0,0,.412-.175Z" transform="translate(-266.125 -428.589)" fill="#cbcbcb"/>
  </g>
</svg>
