<svg xmlns="http://www.w3.org/2000/svg" width="18.335" height="18.223" viewBox="0 0 18.335 18.223">
  <path id="facebook_1_" data-name="facebook(1)" d="M18.335,9.167a9.167,9.167,0,1,0-10.6,9.056V11.817H5.407V9.167H7.735V7.148A3.235,3.235,0,0,1,11.2,3.581a14.1,14.1,0,0,1,2.052.179V6.016H12.094A1.325,1.325,0,0,0,10.6,7.448v1.72h2.543l-.406,2.65H10.6v6.406A9.169,9.169,0,0,0,18.335,9.167Z" fill="#b2b2b2"/>
</svg>
