<svg id="Group_18" data-name="Group 18" xmlns="http://www.w3.org/2000/svg" width="68.452" height="55.397" viewBox="0 0 68.452 55.397">
  <g id="Group_17" data-name="Group 17" transform="translate(0 4.667)">
    <path id="Path_267" data-name="Path 267" d="M20.667,34.123,27.8,26.994,17.172,16.368A10.059,10.059,0,0,0,2.946,30.592L20.215,47.862A10.059,10.059,0,0,1,20.667,34.123Z" transform="translate(0 -0.563)" fill="#0095cb"/>
    <path id="Path_268" data-name="Path 268" d="M15.482,39.8c.145.166.3.329.452.486h0a10.018,10.018,0,0,0,7.129,2.946,10.024,10.024,0,0,1-7.1-2.946Z" transform="translate(4.733 7.5)" fill="#95599b"/>
    <path id="Path_269" data-name="Path 269" d="M59,6.52h0a10.059,10.059,0,0,0-14.225,0L21.289,30l7.129,7.129a10.056,10.056,0,0,1,.452,13.739L59,20.744A10.059,10.059,0,0,0,59,6.52Z" transform="translate(6.509 -3.574)" fill="#bb216b"/>
    <g id="Group_16" data-name="Group 16" transform="translate(17.723 26.43)">
      <path id="Path_270" data-name="Path 270" d="M30.777,30.945l-7.129-7.129-7.131,7.129a10.059,10.059,0,0,0-.452,13.739l.487.486a10.018,10.018,0,0,0,14.191,0l.486-.486A10.056,10.056,0,0,0,30.777,30.945Z" transform="translate(-13.573 -23.816)" fill="#0e346e"/>
    </g>
  </g>
  <circle id="Ellipse_1" data-name="Ellipse 1" cx="8.973" cy="8.973" r="8.973" transform="translate(19.443)" fill="#fcae00"/>
</svg>
